<?xml version="1.0"?>
<robot>

  <!-- World -->
  <gazebo reference="world">
  </gazebo>

  <!-- Base Link -->
  <gazebo reference="base_link">
    <kp>1000000.0</kp>
    <kd>100.0</kd>
    <mu1>30.0</mu1>
    <mu2>30.0</mu2>
    <material>Gazebo/Red</material>
    <selfCollide>True</selfCollide>
  </gazebo>

  <!-- Link1 -->
  <gazebo reference="link1">
    <kp>1000000.0</kp>
    <kd>100.0</kd>
    <mu1>30.0</mu1>
    <mu2>30.0</mu2>
    <material>Gazebo/Red</material>
    <selfCollide>True</selfCollide>
  </gazebo>

  <!-- Link2 -->
  <gazebo reference="link2">
    <kp>1000000.0</kp>
    <kd>100.0</kd>
    <mu1>30.0</mu1>
    <mu2>30.0</mu2>
    <material>Gazebo/Red</material>
    <selfCollide>True</selfCollide>
  </gazebo>

  <!-- Link3 -->
  <gazebo reference="link3">
    <kp>1000000.0</kp>
    <kd>100.0</kd>
    <mu1>30.0</mu1>
    <mu2>30.0</mu2>
    <material>Gazebo/Red</material>
    <selfCollide>True</selfCollide>
  </gazebo>

  <!-- Link4 -->
  <gazebo reference="link4">
    <kp>1000000.0</kp>
    <kd>100.0</kd>
    <mu1>30.0</mu1>
    <mu2>30.0</mu2>
    <material>Gazebo/Red</material>
    <selfCollide>True</selfCollide>
  </gazebo>

  <!-- Link5 -->
  <gazebo reference="link5">
    <kp>1000000.0</kp>
    <kd>100.0</kd>
    <mu1>30.0</mu1>
    <mu2>30.0</mu2>
    <material>Gazebo/Red</material>
    <selfCollide>True</selfCollide>
  </gazebo>

  <!-- Link6 -->
  <gazebo reference="link6">
    <kp>1000000.0</kp>
    <kd>100.0</kd>
    <mu1>30.0</mu1>
    <mu2>30.0</mu2>
    <material>Gazebo/Red</material>
    <selfCollide>True</selfCollide>
  </gazebo>

  <!-- Link7 -->
  <gazebo reference="link7">
    <kp>1000000.0</kp>
    <kd>100.0</kd>
    <mu1>30.0</mu1>
    <mu2>30.0</mu2>
    <material>Gazebo/Red</material>
    <selfCollide>True</selfCollide>
  </gazebo>

  <!-- Link8 -->
  <!--<gazebo reference="link8">
    <kp>1000000.0</kp>
    <kd>100.0</kd>
    <mu1>30.0</mu1>
    <mu2>30.0</mu2>
    <material>Gazebo/Red</material>
    <selfCollide>True</selfCollide>
  </gazebo>-->

  <!-- grip_link -->
  <gazebo reference="grip_link">
    <kp>1000000.0</kp>
    <kd>100.0</kd>
    <mu1>30.0</mu1>
    <mu2>30.0</mu2>
    <material>Gazebo/Green</material>
    <selfCollide>True</selfCollide>
  </gazebo>

  <!-- grip_link_sub -->
  <gazebo reference="grip_link_sub">
    <kp>1000000.0</kp>
    <kd>100.0</kd>
    <mu1>30.0</mu1>
    <mu2>30.0</mu2>
    <material>Gazebo/Green</material>
    <selfCollide>True</selfCollide>
  </gazebo>

  <!-- ros_control plugin -->
  <gazebo>
    <plugin name="gazebo_ros_control" filename="libgazebo_ros_control.so">
      <robotNamespace></robotNamespace>
      <controlPeriod>0.001</controlPeriod>
      <robotSimType>gazebo_ros_control/DefaultRobotHWSim</robotSimType>
    </plugin>
  </gazebo>

</robot>
