<sdf version="1.4">
  <world name="default">
    <!-- A global light source -->
    <include>
      <uri>model://sun</uri>
    </include>

    <!-- A ground plane -->
    <include>
      <uri>model://ground_plane</uri>
    </include>

    <physics type="ode">
      <real_time_update_rate>1000.0</real_time_update_rate>
      <max_step_size>0.001</max_step_size>
      <real_time_factor>1</real_time_factor>
      <ode>
        <solver>
          <type>quick</type>
          <iters>150</iters>
          <precon_iters>0</precon_iters>
          <sor>1.400000</sor>
          <use_dynamic_moi_rescaling>1</use_dynamic_moi_rescaling>
        </solver>
        <constraints>
          <cfm>0.00001</cfm>
          <erp>0.2</erp>
          <contact_max_correcting_vel>2000.000000</contact_max_correcting_vel>
          <contact_surface_layer>0.01000</contact_surface_layer>
        </constraints>
      </ode>
    </physics>

    <scene>
      <ambient>0.4 0.4 0.4 1</ambient>
      <background>0.7 0.7 0.7 1</background>
      <shadows>true</shadows>
    </scene>

    <gui fullscreen='0'>
      <camera name='user_camera'>
        <pose> 2.0 -2.0 1.2 0.0 0.275643 2.356190 </pose>
        <view_controller>orbit</view_controller>
      </camera>
    </gui>
    
    <!--<model name='kinect'>
      <pose frame=''>0.85931 0.242068 1.04639 0 0 -2.6122</pose>
      <scale>1 1 1</scale>
      <link name='link'>
        <pose frame=''>0.85931 0.242068 1.04639 0 0 -2.6122</pose>
        <velocity>0 0 0 0 -0 0</velocity>
        <acceleration>0 0 0 0 -0 0</acceleration>
        <wrench>0 0 0 0 -0 0</wrench>
      </link>
    </model>-->
    
    <model name='kinect'>
      <static>1</static>
      <pose frame=''>0.85931 0.242068 0.805 0 0 -2.6122</pose>
      <link name='link'>
        <inertial>
          <mass>0.1</mass>
          <inertia>
            <ixx>1</ixx>
            <ixy>0</ixy>
            <ixz>0</ixz>
            <iyy>1</iyy>
            <iyz>0</iyz>
            <izz>1</izz>
          </inertia>
        </inertial>
        <collision name='collision'>
          <geometry>
            <box>
              <size>0.073 0.276 0.072</size>
            </box>
          </geometry>
          <max_contacts>10</max_contacts>
          <surface>
            <contact>
              <ode/>
            </contact>
            <bounce/>
            <friction>
              <torsional>
                <ode/>
              </torsional>
              <ode/>
            </friction>
          </surface>
        </collision>
        <visual name='visual'>
          <geometry>
            <mesh>
              <uri>model://kinect/meshes/kinect.dae</uri>
              <scale>1 1 1</scale>
            </mesh>
          </geometry>
        </visual>
        <sensor name='camera' type='depth'>
          <update_rate>20</update_rate>
          <camera name='__default__'>
            <horizontal_fov>1.0472</horizontal_fov>
            <image>
              <width>640</width>
              <height>480</height>
              <format>R8G8B8</format>
            </image>
            <clip>
              <near>0.05</near>
              <far>3</far>
            </clip>
          </camera>
          <plugin filename="libgazebo_ros_openni_kinect.so" name="kinect_camera_controller">                                                                            
          <cameraName>camera</cameraName>                                                                                                                             
          <alwaysOn>true</alwaysOn>                                                                                                                                   
          <updateRate>10</updateRate>                                                                                                                                 
          <imageTopicName>rgb/image_raw</imageTopicName>                                                                                                              
          <depthImageTopicName>depth/image_raw</depthImageTopicName>                                                                                                  
          <pointCloudTopicName>depth/points</pointCloudTopicName>                                                                                                     
          <cameraInfoTopicName>rgb/camera_info</cameraInfoTopicName>                                                                                                  
          <depthImageCameraInfoTopicName>depth/camera_info</depthImageCameraInfoTopicName>                                                                            
          <frameName>camera_depth_optical_frame</frameName>                                                                                                           
          <baseline>0.1</baseline>                                                                                                                                    
          <distortion_k1>0.0</distortion_k1>                                                                                                                          
          <distortion_k2>0.0</distortion_k2>                                                                                                                          
          <distortion_k3>0.0</distortion_k3>                                                                                                                          
          <distortion_t1>0.0</distortion_t1>                                                                                                                          
          <distortion_t2>0.0</distortion_t2>                                                                                                                          
          <pointCloudCutoff>0.4</pointCloudCutoff>                                                                                                                    
          <robotNamespace>/</robotNamespace>                                                                                                                          
        </plugin>
        </sensor>
        <self_collide>0</self_collide>
        <kinematic>0</kinematic>
      </link>
    </model>
    <model name='kinect_pilar'>
      <static>1</static>
      <pose frame=''>0.89 0.242 0.5 0 -0 0</pose>
      <link name='link'>
        <inertial>
          <mass>1</mass>
          <inertia>
            <ixx>0.145833</ixx>
            <ixy>0</ixy>
            <ixz>0</ixz>
            <iyy>0.145833</iyy>
            <iyz>0</iyz>
            <izz>0.125</izz>
          </inertia>
        </inertial>
        <collision name='collision'>
          <geometry>
            <cylinder>
              <radius>0.04</radius>
              <length>0.5</length>
            </cylinder>
          </geometry>
          <max_contacts>10</max_contacts>
          <surface>
            <contact>
              <ode/>
            </contact>
            <bounce/>
            <friction>
              <torsional>
                <ode/>
              </torsional>
              <ode/>
            </friction>
          </surface>
        </collision>
        <visual name='visual'>
          <geometry>
            <cylinder>
              <radius>0.04</radius>
              <length>0.5</length>
            </cylinder>
          </geometry>
          <material>
            <script>
              <uri>file://media/materials/scripts/gazebo.material</uri>
              <name>Gazebo/Metal</name>
            </script>
            <ambient>1 1 1 1</ambient>
          </material>
        </visual>
        <self_collide>0</self_collide>
        <kinematic>0</kinematic>
      </link>
    </model>

  </world>
</sdf>
